id,Name,Description,TypeOfTalent,Icon,CanBeAugmentedBy,Tier,Rank,bIsGlobal,bIsTalent,TalentTree,TypeOfDamage,BaseDamageMin,BaseDamageMax,NumberOfProjectiles,ProjectileSpeed,Range,NumberOfBouncesAndChains,Cooldown,CastTime,BaseAoeSize,StatEfficiency,ResourceType,ResourceCost,ClassToSpawn,AnimationToUse,TypeOfDOT,ChanceToApply,DOTDuration,DOTTickInterval,DOTDamageMin,DOTDamageMax,TypeOfEffect,EffectDuration,BuffEffect,CurseEffect,DebuffEffect,TypeOfCC,ChanceToApplyCC,CCDuration,TypeOfPassive,BonusAppliesTo,BonusValue
1,Touch Of Fire,"(Direct) Fire damage you cause (have a X% chance to) ignite enemies, dealing Y% of the damage inflicted as burning of Z seconds.",Passive,iconref,,1,1,TRUE,TRUE,FIRE,,,,,,,,,,,,,,,,Burning,25,10,1,20,30,,,,,,,,,,,
2,Touch Of Fire,"(Direct) Fire damage you cause (have a X% chance to) ignite enemies, dealing Y% of the damage inflicted as burning of Z seconds.",Passive,iconref,,1,2,TRUE,TRUE,FIRE,,,,,,,,,,,,,,,,Burning,30,12,1,30,40,,,,,,,,,,,
3,Touch Of Fire,"(Direct) Fire damage you cause (have a X% chance to) ignite enemies, dealing Y% of the damage inflicted as burning of Z seconds.",Passive,iconref,,1,3,TRUE,TRUE,FIRE,,,,,,,,,,,,,,,,Burning,35,15,1,40,50,,,,,,,,,,,
4,Fireball,"You cast a fireball, which detonates on first enemy impact. deals damage to enemies within a certain range from the impact.",Active,iconref,,1,1,FALSE,TRUE,FIRE,FIRE,20,40,1,1200,500,0,0,0.5,300,1,Mana,40,FIREBALL,default_caster,,,,,,,,,,,,,,,,,
5,Fireball,"You cast a fireball, which detonates on first enemy impact. deals damage to enemies within a certain range from the impact.",Active,iconref,,1,2,FALSE,TRUE,FIRE,FIRE,30,50,1,1200,600,0,0,0.5,300,1,Mana,50,FIREBALL,default_caster,,,,,,,,,,,,,,,,,
6,Fireball,"You cast a fireball, which detonates on first enemy impact. deals damage to enemies within a certain range from the impact.",Active,iconref,,1,3,FALSE,TRUE,FIRE,FIRE,40,60,1,1200,700,0,0,0.5,300,1,Mana,60,FIREBALL,default_caster,,,,,,,,,,,,,,,,,
7,Elemental Proliferate,"Increases the duration of freeze, slow, burning, poison, and curse by x%",Passive,iconref,,1,1,TRUE,TRUE,FIRE,,,,,,,,,,,,,,,,,,,,,,,,,,,,,,StatusEffectDuration,"Ignite, Slow, freeze, poison, curse",1.1
8,Elemental Proliferate,"Increases the duration of freeze, slow, burning, poison, and curse by x%",Passive,iconref,,1,2,TRUE,TRUE,FIRE,,,,,,,,,,,,,,,,,,,,,,,,,,,,,,StatusEffectDuration,"Ignite, Slow, freeze, poison, curse",1.2
9,Elemental Proliferate,"Increases the duration of freeze, slow, burning, poison, and curse by x%",Passive,iconref,,1,3,TRUE,TRUE,FIRE,,,,,,,,,,,,,,,,,,,,,,,,,,,,,,StatusEffectDuration,"Ignite, Slow, freeze, poison, curse",1.3
10,Third Degree Burn,Curse: curse enemies within X radius of target location. Enemies cursed take 25% increased fire damage for Y seconds.,Active,iconref,,1,1,FALSE,TRUE,FIRE,NONE,,,,,1000,,30,0,300,1,,,THIRD_DEGREE_BURN,default_caster,,,,,,,CURSE,5,,15,,,,,,,
11,Third Degree Burn,Curse: curse enemies within X radius of target location. Enemies cursed take 25% increased fire damage for Y seconds.,Active,iconref,,1,2,FALSE,TRUE,FIRE,NONE,,,,,1000,,30,0,400,1,,,THIRD_DEGREE_BURN,default_caster,,,,,,,CURSE,10,,20,,,,,,,
12,Third Degree Burn,Curse: curse enemies within X radius of target location. Enemies cursed take 25% increased fire damage for Y seconds.,Active,iconref,,1,3,FALSE,TRUE,FIRE,NONE,,,,,1000,,30,0,500,1,,,THIRD_DEGREE_BURN,default_caster,,,,,,,CURSE,15,,25,,,,,,,
13,Firewalker,"When you move, the ground you walk on becomes hot as daaaaamn, causing enemies who walk on it to become burning and take X-Y Fire damage over Z seconds.",Passive,iconref,,1,1,FALSE,TRUE,FIRE,FIRE,,,,,,,0.2,0,50,1,,,FIREWALKER,NONE,Burning,100,2,1,3,5,,,,,,,,,,,
14,Firewalker,"When you move, the ground you walk on becomes hot as daaaaamn, causing enemies who walk on it to become burning and take X-Y Fire damage over Z seconds.",Passive,iconref,,1,2,FALSE,TRUE,FIRE,FIRE,,,,,,,0.2,0,50,1,,,FIREWALKER,NONE,Burning,100,3,1,6,9,,,,,,,,,,,
15,Firewalker,"When you move, the ground you walk on becomes hot as daaaaamn, causing enemies who walk on it to become burning and take X-Y Fire damage over Z seconds.",Passive,iconref,,1,3,FALSE,TRUE,FIRE,FIRE,,,,,,,0.2,0,50,1,,,FIREWALKER,NONE,Burning,100,4,1,10,15,,,,,,,,,,,
16,Flamestrike,"Targeted aoe, dealing X-Y fire damage.",Active,iconref,,1,1,FALSE,TRUE,FIRE,FIRE,20,40,1,,1000,,5,1,300,1,,,FLAMESTRIKE,default_caster,,,,,,,,,,,,,,,,,
17,Flamestrike,"Targeted aoe, dealing X-Y fire damage.",Active,iconref,,1,2,FALSE,TRUE,FIRE,FIRE,30,50,1,,1000,,4,1,350,1,,,FLAMESTRIKE,default_caster,,,,,,,,,,,,,,,,,
18,Flamestrike,"Targeted aoe, dealing X-Y fire damage.",Active,iconref,,1,3,FALSE,TRUE,FIRE,FIRE,40,60,1,,1000,,3,1,400,1,,,FLAMESTRIKE,default_caster,,,,,,,,,,,,,,,,,
19,Hot Hot Hot!,"For each burning effect you have applied and is still in effect, you gain X% increased movement speed.",Passive,iconref,,1,1,FALSE,TRUE,FIRE,,,,,,,,,,,,,,HOTHOTHOT,NONE,,,,,,,,,,,,,,,stat,UTIL_MovementSpeed,1.01
20,Hot Hot Hot!,"For each burning effect you have applied and is still in effect, you gain X% increased movement speed.",Passive,iconref,,1,2,FALSE,TRUE,FIRE,,,,,,,,,,,,,,HOTHOTHOT,NONE,,,,,,,,,,,,,,,stat,UTIL_MovementSpeed,1.02
21,Hot Hot Hot!,"For each burning effect you have applied and is still in effect, you gain X% increased movement speed.",Passive,iconref,,1,3,FALSE,TRUE,FIRE,,,,,,,,,,,,,,HOTHOTHOT,NONE,,,,,,,,,,,,,,,stat,UTIL_MovementSpeed,1.03
22,Blazing Barrier,"Self shield, melee attackers take fire damage",Active,iconref,,2,1,FALSE,TRUE,FIRE,FIRE,3,5,0,0,0,0,30,0,0,0,,,BLAZING_BARRIER,default_caster,,,,,,,BUFF,20,,,,,,,,,
23,Blazing Barrier,"Self shield, melee attackers take fire damage",Active,iconref,,2,2,FALSE,TRUE,FIRE,FIRE,6,9,0,0,0,0,30,0,0,0,,,BLAZING_BARRIER,default_caster,,,,,,,BUFF,25,,,,,,,,,
24,Blazing Barrier,"Self shield, melee attackers take fire damage",Active,iconref,,2,3,FALSE,TRUE,FIRE,FIRE,10,15,0,0,0,0,30,0,0,0,,,BLAZING_BARRIER,default_caster,,,,,,,BUFF,30,,,,,,,,,
25,Embers,"Burning damage caused by you have a chance to give you a stack of ""Embers"" (stacking up to 3 times). While you have an Ember, your next Flamestrike, Firewave or Fireball cast will become Instant.",Passive,iconref,,2,1,TRUE,TRUE,FIRE,,,,,,,,,,,,,,EMBERS,NONE,,,,,,,BUFF,10,,,,,,,,,
26,Embers,"Burning damage caused by you have a chance to give you a stack of ""Embers"" (stacking up to 3 times). While you have an Ember, your next Flamestrike, Firewave or Fireball cast will become Instant.",Passive,iconref,,2,2,TRUE,TRUE,FIRE,,,,,,,,,,,,,,EMBERS,NONE,,,,,,,BUFF,12,,,,,,,,,
27,Embers,"Burning damage caused by you have a chance to give you a stack of ""Embers"" (stacking up to 3 times). While you have an Ember, your next Flamestrike, Firewave or Fireball cast will become Instant.",Passive,iconref,,2,3,TRUE,TRUE,FIRE,,,,,,,,,,,,,,EMBERS,NONE,,,,,,,BUFF,15,,,,,,,,,
28,Firewave,"Shoot a powerful wave of fire in a directional cone, dealing X-Y Fire damage. Leaves behind burning ground, applying burning and deals Z-Æ fire damage over Ø seconds. duration only goes down when exiting affected area.",Active,iconref,,4,1,FALSE,TRUE,FIRE,FIRE,50,60,1,1000,200,0,60,1,200,1,,,FIREWAVE,default_caster,FIRE,1,4,1,10,12,,,,,,,,,,,
29,Firewave,"Shoot a powerful wave of fire in a directional cone, dealing X-Y Fire damage. Leaves behind burning ground, applying burning and deals Z-Æ fire damage over Ø seconds. duration only goes down when exiting affected area.",Active,iconref,,4,2,FALSE,TRUE,FIRE,FIRE,100,120,1,1000,220,0,60,1,225,1,,,FIREWAVE,default_caster,FIRE,1,5,1,15,17,,,,,,,,,,,
30,Firewave,"Shoot a powerful wave of fire in a directional cone, dealing X-Y Fire damage. Leaves behind burning ground, applying burning and deals Z-Æ fire damage over Ø seconds. duration only goes down when exiting affected area.",Active,iconref,,4,3,FALSE,TRUE,FIRE,FIRE,150,180,1,1000,240,0,60,1,250,1,,,FIREWAVE,default_caster,FIRE,1,6,1,20,23,,,,,,,,,,,
31,Dragons breath,A huge Channeled version of Firewave,Active,iconref,,5,1,FALSE,TRUE,FIRE,FIRE,300,350,1,1000,500,0,120,5,1000,1,,,DRAGONS_BREATH,channel_caster,FIRE,1,7,1,50,60,,,,,,,,,,,
32,Dragons breath,A huge Channeled version of Firewave,Active,iconref,,5,2,FALSE,TRUE,FIRE,FIRE,500,600,1,1000,550,0,120,5,1200,1,,,DRAGONS_BREATH,channel_caster,FIRE,1,8,1,100,110,,,,,,,,,,,
33,Dragons breath,A huge Channeled version of Firewave,Active,iconref,,5,3,FALSE,TRUE,FIRE,FIRE,800,1000,1,1000,600,0,120,5,1500,1,,,DRAGONS_BREATH,channel_caster,FIRE,1,9,1,150,175,,,,,,,,,,,
34,Pyroblast,"Replaces your Fireball skill with Pyroblast, dealing X-Y fire damage and increases chance to apply burning by Z%.",Passive,iconref,,4,1,FALSE,TRUE,FIRE,FIRE,100,120,1,1200,1000,0,0,0.5,400,1,,,PYROBLAST,default_caster,,,,,,,,,,,,,,,,,
35,Pyroblast,"Replaces your Fireball skill with Pyroblast, dealing X-Y fire damage and increases chance to apply burning by Z%.",Passive,iconref,,4,2,FALSE,TRUE,FIRE,FIRE,150,175,1,1200,1250,0,0,0.5,450,1,,,PYROBLAST,default_caster,,,,,,,,,,,,,,,,,
36,Pyroblast,"Replaces your Fireball skill with Pyroblast, dealing X-Y fire damage and increases chance to apply burning by Z%.",Passive,iconref,,4,3,FALSE,TRUE,FIRE,FIRE,220,250,1,1200,1500,0,0,0.5,500,1,,,PYROBLAST,default_caster,,,,,,,,,,,,,,,,,
37,ARMAGEDDON!,"The sky turns red, pouring down fireballs dealing X-Y fire damage. On impact, the fireballs create a burning patch that apply burning to foes touching it, dealing Z-Æ over Ø seconds.",Active,iconref,,5,1,FALSE,TRUE,FIRE,FIRE,3000,3200,10,1000,10000,0,300,3,300,0.7,,,ARMAGEDDON,default_caster,FIRE,1,15,1,300,400,,,,,,,,,,,
38,ARMAGEDDON!,"The sky turns red, pouring down fireballs dealing X-Y fire damage. On impact, the fireballs create a burning patch that apply burning to foes touching it, dealing Z-Æ over Ø seconds.",Active,iconref,,5,2,FALSE,TRUE,FIRE,FIRE,3300,3500,20,1000,10000,0,300,3,400,0.7,,,ARMAGEDDON,default_caster,FIRE,1,20,1,600,700,,,,,,,,,,,
39,ARMAGEDDON!,"The sky turns red, pouring down fireballs dealing X-Y fire damage. On impact, the fireballs create a burning patch that apply burning to foes touching it, dealing Z-Æ over Ø seconds.",Active,iconref,,5,3,FALSE,TRUE,FIRE,FIRE,3500,4000,30,1000,10000,0,300,3,500,0.7,,,ARMAGEDDON,default_caster,FIRE,1,25,1,1000,1200,,,,,,,,,,,
40,Infernal form,"You continuouisly burn foes within X range. Fire damage heals you, but frost damage deals 100% more damage to you. (+150% fire resist)",Sustained,iconref,,5,1,FALSE,TRUE,FIRE,FIRE,,,,,,,,,300,1,,,INFERNAL_FORM,NONE,FIRE,1,3,1,100,200,,,,,,,,,,,
41,Infernal form,"You continuouisly burn foes within X range. Fire damage heals you, but frost damage deals 100% more damage to you. (+150% fire resist)",Sustained,iconref,,5,2,FALSE,TRUE,FIRE,FIRE,,,,,,,,,350,1,,,INFERNAL_FORM,NONE,FIRE,1,4,1,200,300,,,,,,,,,,,
42,Infernal form,"You continuouisly burn foes within X range. Fire damage heals you, but frost damage deals 100% more damage to you. (+150% fire resist)",Sustained,iconref,,5,3,FALSE,TRUE,FIRE,FIRE,,,,,,,,,400,1,,,INFERNAL_FORM,NONE,FIRE,1,5,1,300,400,,,,,,,,,,,
43,Ravaging Blaze,"Powerful short duration self buff. 100% of damage dealt is also applied as burning (if you have Touch of Fire unlocked), 100% increased fire resist, 10 seconds duration",Active,iconref,,3,1,TRUE,TRUE,FIRE,,,,,,,,,,,,,,RAVAGING_BLAZE,default_caster,,,,,,,,,,,,,,,,,
44,Ravaging Blaze,"Powerful short duration self buff. 100% of damage dealt is also applied as burning (if you have Touch of Fire unlocked), 100% increased fire resist, 10 seconds duration",Active,iconref,,3,2,TRUE,TRUE,FIRE,,,,,,,,,,,,,,RAVAGING_BLAZE,default_caster,,,,,,,,,,,,,,,,,
45,Ravaging Blaze,"Powerful short duration self buff. 100% of damage dealt is also applied as burning (if you have Touch of Fire unlocked), 100% increased fire resist, 10 seconds duration",Active,iconref,,3,3,TRUE,TRUE,FIRE,,,,,,,,,,,,,,RAVAGING_BLAZE,default_caster,,,,,,,,,,,,,,,,,
46,Fire rune,"Place a magical rune on the ground. When enemies walk over the rune, it trigger an explosion dealing X-Y fire damage. After triggering, the rune is depleted.",Active,iconref,,3,1,FALSE,TRUE,FIRE,FIRE,200,300,1,0,0,0,30,1,400,1,,,FIRE_RUNE,default_caster,,,,,,,,,,,,,,,,,
47,Fire rune,"Place a magical rune on the ground. When enemies walk over the rune, it trigger an explosion dealing X-Y fire damage. After triggering, the rune is depleted.",Active,iconref,,3,2,FALSE,TRUE,FIRE,FIRE,300,400,1,0,0,0,30,1,500,1,,,FIRE_RUNE,default_caster,,,,,,,,,,,,,,,,,
48,Fire rune,"Place a magical rune on the ground. When enemies walk over the rune, it trigger an explosion dealing X-Y fire damage. After triggering, the rune is depleted.",Active,iconref,,3,3,FALSE,TRUE,FIRE,FIRE,400,500,1,0,0,0,30,1,600,1,,,FIRE_RUNE,default_caster,,,,,,,,,,,,,,,,,
